%YAML 1.1
%TAG !u! tag:unity3d.com,2011:
--- !u!114 &11400000
MonoBehaviour:
  m_ObjectHideFlags: 0
  m_CorrespondingSourceObject: {fileID: 0}
  m_PrefabInstance: {fileID: 0}
  m_PrefabAsset: {fileID: 0}
  m_GameObject: {fileID: 0}
  m_Enabled: 1
  m_EditorHideFlags: 0
  m_Script: {fileID: 11500000, guid: ecbfe4f833ac23744900c88f929bf92a, type: 3}
  m_Name: SpawnBulletBoss_1
  m_EditorClassIdentifier: 
  m_Object: {fileID: 6578883369568491404, guid: 0116d571cc6c41b408374cddc092d612, type: 3}
  m_SpawnPoints:
  - m_SpawnPointID: TopEnemySpawn_17 (0)
    m_Weight: 1
  - m_SpawnPointID: TopEnemySpawn_17 (1)
    m_Weight: 1
  - m_SpawnPointID: TopEnemySpawn_17 (2)
    m_Weight: 1
  - m_SpawnPointID: TopEnemySpawn_17 (3)
    m_Weight: 1
  - m_SpawnPointID: TopEnemySpawn_17 (4)
    m_Weight: 1
  - m_SpawnPointID: TopEnemySpawn_17 (5)
    m_Weight: 1
  - m_SpawnPointID: TopEnemySpawn_17 (6)
    m_Weight: 1
  - m_SpawnPointID: TopEnemySpawn_17 (7)
    m_Weight: 1
  - m_SpawnPointID: TopEnemySpawn_17 (8)
    m_Weight: 1
  - m_SpawnPointID: TopEnemySpawn_17 (9)
    m_Weight: 1
  - m_SpawnPointID: TopEnemySpawn_17 (10)
    m_Weight: 1
  - m_SpawnPointID: TopEnemySpawn_17 (11)
    m_Weight: 1
  - m_SpawnPointID: TopEnemySpawn_17 (12)
    m_Weight: 1
  - m_SpawnPointID: TopEnemySpawn_17 (13)
    m_Weight: 1
  - m_SpawnPointID: TopEnemySpawn_17 (14)
    m_Weight: 1
  - m_SpawnPointID: TopEnemySpawn_17 (15)
    m_Weight: 1
  - m_SpawnPointID: TopEnemySpawn_17 (16)
    m_Weight: 1
  m_SpawnCount: {x: 1, y: 1}
