%YAML 1.1
%TAG !u! tag:unity3d.com,2011:
--- !u!114 &11400000
MonoBehaviour:
  m_ObjectHideFlags: 0
  m_CorrespondingSourceObject: {fileID: 0}
  m_PrefabInstance: {fileID: 0}
  m_PrefabAsset: {fileID: 0}
  m_GameObject: {fileID: 0}
  m_Enabled: 1
  m_EditorHideFlags: 0
  m_Script: {fileID: 11500000, guid: 24ac7991ca3661d44b338d0301d0a054, type: 3}
  m_Name: TopDownLaserEnemySpawn_1_(3,2)
  m_EditorClassIdentifier: 
  m_WavePreset: {fileID: 11400000, guid: 96ae8bec2d9edfd49b935a12a3dd92b8, type: 2}
  m_WaveCount: 2
  m_WaveCountProgressionMultipler: 0.1
  m_WaveDelay: 10
  m_StartDelay: 1
  m_WaitForActorsToDespawn: 1
